{
  "as": "$(CC)", 
  "buildid": "20151110132153", 
  "cc": "/Users/fhd/Software/android-ndk-r8e/toolchains/arm-linux-androideabi-4.7/prebuilt/darwin-x86_64/bin/arm-linux-androideabi-gcc", 
  "cxx": "/Users/fhd/Software/android-ndk-r8e/toolchains/arm-linux-androideabi-4.7/prebuilt/darwin-x86_64/bin/arm-linux-androideabi-g++", 
  "host_alias": "x86_64-apple-darwin14.4.0", 
  "host_cpu": "x86_64", 
  "host_os": "darwin14.4.0", 
  "host_vendor": "apple", 
  "ld": "/Users/fhd/Software/android-ndk-r8e/toolchains/arm-linux-androideabi-4.7/prebuilt/darwin-x86_64/bin/arm-linux-androideabi-ld", 
  "moz_app_id": "{55aba3ac-94d3-41a8-9e25-5c21fe874539}", 
  "moz_app_maxversion": "1.*", 
  "moz_app_name": "fennec", 
  "moz_app_vendor": "Mozilla", 
  "moz_app_version": "1.1.0", 
  "moz_pkg_platform": "android-arm", 
  "moz_source_repo": "MOZ_SOURCE_REPO=http://hg@hg.adblockplus.org/adblockbrowser", 
  "moz_source_stamp": "42e1f5902f6e", 
  "moz_update_channel": "default", 
  "target_alias": "arm-linux-androideabi", 
  "target_cpu": "arm", 
  "target_os": "android", 
  "target_vendor": "linux"
}
