{
  "as": "$(CC)", 
  "buildid": "20171106131106", 
  "cc": "/Users/dlima/Library/Android/android-ndk-r11b/toolchains/arm-linux-androideabi-4.9/prebuilt/darwin-x86_64/bin/arm-linux-androideabi-gcc -std=gnu99", 
  "cxx": "/Users/dlima/Library/Android/android-ndk-r11b/toolchains/arm-linux-androideabi-4.9/prebuilt/darwin-x86_64/bin/arm-linux-androideabi-g++ -std=gnu++11", 
  "host_alias": "x86_64-apple-darwin16.7.0", 
  "host_cpu": "x86_64", 
  "host_os": "darwin16.7.0", 
  "host_vendor": "apple", 
  "moz_app_id": "{55aba3ac-94d3-41a8-9e25-5c21fe874539}", 
  "moz_app_maxversion": "1.*", 
  "moz_app_name": "fennec", 
  "moz_app_vendor": "Mozilla", 
  "moz_app_version": "1.3.1", 
  "moz_pkg_platform": "android-arm", 
  "moz_source_repo": "MOZ_SOURCE_REPO=https://hg@hg.adblockplus.org/adblockbrowser", 
  "moz_source_stamp": "38fcd5d5bfeb4655f057b41fa7f3071b700d8972", 
  "moz_update_channel": "default", 
  "target_alias": "arm-unknown-linux-androideabi", 
  "target_cpu": "arm", 
  "target_os": "linux-androideabi", 
  "target_vendor": "unknown"
}
